{
    "development": {
      "GATSBY_API_URL": "https://acabaramoscom.globat.com/ssr/graphql/public/index.php",
      "PORT": 3001
    },
    "production": {
      "GATSBY_API_URL": "https://acabaramoscom.globat.com/ssr/graphql/public/index.php",
      "PORT": 5000
    }
  }